{
  "data": [
    {
      "name": "الإحصاء",
      "description": "يهدف هذا التخصص إلى تزويد الطالب بالمعارف والمهارات اللازمة لاستخدام الأساليب الإحصائية، والتحليل الإحصائي، والاحتمالات، والتوزيعات الاحتمالية، واستخدام البرامج الإحصائية، والطرق الإحصائية، واختبارات الفروض، كما يسعى إلى تمكين الطالب من التعامل مع البيانات الإحصائية وتحليلها ثم تصميم استمارة جمع البيانات، واستخراج النتائج باستخدام البرامج الإحصائية.",
      "subSpecialitiesCount": 7,
      "coursesCount": 6,
      "coursesDegree":120
    },
    {
      "name": "الإحصاء الطبي",
      "description": "يهدف هذا التخصص إلى تزويد الطالب بالمعارف والمهارات التي تمكّنه من تطبيق الطرق الإحصائية في الأبحاث الطبية والصحية المختلفة؛ وتشمل جمع المعلومات، وتحليل بيانات التجارب الطبية، وتفسير نتائجها، والتحقق من الافتراضات، والوصول إلى الأدلة والبراهين التي تؤثر على الممارسة الطبية، واتخاذ القرارات المناسبة.",
      "subSpecialitiesCount": 2,
      "coursesCount": 6,
      "coursesDegree":50
    },
    {
      "name": "العلوم الاكتوارية",
      "description": "يهدف هذا التخصص إلى تزويد الطالب بالمعارف والمهارات التي تمكّنه من تطبيق النماذج الرياضية والتحليل الإحصائي؛ لصياغة التوقعات للحالة الاقتصادية، وتحليل الأزمات المحتملة وتبعاتها المالية، وكتابة التقارير، وتحضير العروض لتوضيح ذلك.",
      "subSpecialitiesCount": 3,
      "coursesCount": 6,
      "coursesDegree":40
    },
    {
      "name": "الأساليب الكمية",
      "description": "يسعى هذا التخصص إلى تزويد الطالب بالأدوات الرياضية والإحصائية التي يتم استخدامها في التحليل الكمي؛ بهدف تقديم المساعدة لمتخذي القرارات في الجوانب الإدارية، والمالية، والتأمينية المختلفة. ",
      "subSpecialitiesCount": 2,
      "coursesCount": 5,
      "coursesDegree":80
    },
    {
      "name": "تخصصات أخرى في الرياضيات والإحصاء غير مصنفة في مكان آخر",
      "description": "يستخدم رمز (تخصصات أخرى في الرياضيات والإحصاء غير مصنفة في مكان آخر ) لأي تخصص يمكن تصنيفه ضمن المجال الضيق \"الرياضيات والإحصاء \" ولم يتم تصنيفه في مجال تفصيلي محدد أو في مكان آخر من التصنيف.",
      "subSpecialitiesCount": 1,
      "coursesCount": 0,
      "coursesDegree":20
    }
  ],
  "succeeded": true,
  "errors": null,
  "message": null,
  "pageNumber": 60,
  "pageSize": 5,
  "totalPages": 121,
  "totalRecords": 602
}
